<?xml version="1.0" encoding="utf-8"?>
<!-- Generator: Adobe Illustrator 21.1.0, SVG Export Plug-In . SVG Version: 6.00 Build 0)  -->
<svg version="1.1" id="Layer_1" xmlns="http://www.w3.org/2000/svg" xmlns:xlink="http://www.w3.org/1999/xlink" x="0px" y="0px"
	 viewBox="0 0 64 64" style="enable-background:new 0 0 64 64;" xml:space="preserve">
<style type="text/css">
	.st0{fill:none;}
	.st1{fill:#111111;}
</style>
<g>
	<rect class="st0" width="64" height="64"/>
	<path class="st1" d="M48.3,44.3l-3.8,1.3C42.9,41.1,37.8,38,32,38c-5.8,0-10.9,3.1-12.5,7.7l-3.8-1.3C17.9,38.2,24.4,34,32,34
		S46.1,38.2,48.3,44.3 M36,26c1.1,0,2-0.9,2-2s-0.9-2-2-2s-2,0.9-2,2S34.9,26,36,26 M28,26c1.1,0,2-0.9,2-2s-0.9-2-2-2s-2,0.9-2,2
		S26.9,26,28,26 M32,10c12.1,0,22,9.9,22,22s-9.9,22-22,22s-22-9.9-22-22S19.9,10,32,10 M32,6C17.6,6,6,17.6,6,32s11.6,26,26,26
		s26-11.6,26-26S46.4,6,32,6L32,6z"/>
</g>
</svg>
